^C:\USERS\ALEKM\DOCUMENTS\VISUAL STUDIO 2017\PROJECTS\OBJTOTEMPLE\OBJTOTEMPLE\X64\RELEASE\OBJTOTEMPLE.OBJ|C:\USERS\ALEKM\DOCUMENTS\VISUAL STUDIO 2017\PROJECTS\OBJTOTEMPLE\OBJTOTEMPLE\X64\RELEASE\PCH.OBJ
C:\USERS\ALEKM\DOCUMENTS\VISUAL STUDIO 2017\PROJECTS\OBJTOTEMPLE\X64\RELEASE\OBJTOTEMPLE.EXE
C:\USERS\ALEKM\DOCUMENTS\VISUAL STUDIO 2017\PROJECTS\OBJTOTEMPLE\X64\RELEASE\OBJTOTEMPLE.PDB
